romero_lab5
…
# Define the workflow
wf_knn_tune <- 
    workflow() |> 
    add_model(knn_spec_tune) |> 
    add_recipe(spotify_rec)

# Fit the workflow on our predefined folds and hyperparameters
fit_knn_cv <- wf_knn_tune |> 
  tune_grid(cv_folds,
            grid = data.frame(neighbors = c(1,5, seq(10, 100, 10))))
    
# Check the performance with collect_metrics()
fit_knn_cv|> collect_metrics()

# A tibble: 24 × 7
   neighbors .metric  .estimator  mean     n std_err .config              
       <dbl> <chr>    <chr>      <dbl> <int>   <dbl> <chr>                
 1         1 accuracy binary     0.789    10  0.0294 Preprocessor1_Model01
 2         1 roc_auc  binary     0.800    10  0.0314 Preprocessor1_Model01
 3         5 accuracy binary     0.8      10  0.0297 Preprocessor1_Model02
 4         5 roc_auc  binary     0.892    10  0.0237 Preprocessor1_Model02
 5        10 accuracy binary     0.825    10  0.0195 Preprocessor1_Model03
 6        10 roc_auc  binary     0.903    10  0.0213 Preprocessor1_Model03
 7        20 accuracy binary     0.85     10  0.0218 Preprocessor1_Model04
 8        20 roc_auc  binary     0.904    10  0.0216 Preprocessor1_Model04
 9        30 accuracy binary     0.836    10  0.0233 Preprocessor1_Model05
10        30 roc_auc  binary     0.905    10  0.0200 Preprocessor1_Model05
# … with 14 more rows
…
#new spec, tell the model that we are tuning hyperparams
tree_spec_tune <- decision_tree(
  cost_complexity = tune(),
  tree_depth = tune(),
  min_n = tune()) |>
  set_engine('rpart') |>
  set_mode('classification')

tree_grid <- grid_regular(cost_complexity(), tree_depth(), min_n(), levels = 5)

tree_grid

# A tibble: 125 × 3
   cost_complexity tree_depth min_n
             <dbl>      <int> <int>
 1    0.0000000001          1     2
 2    0.0000000178          1     2
 3    0.00000316            1     2
 4    0.000562              1     2
 5    0.1                   1     2
 6    0.0000000001          4     2
 7    0.0000000178          4     2
 8    0.00000316            4     2
 9    0.000562              4     2
10    0.1                   4     2
# … with 115 more rows
…
